3:I[5613,[],""]
4:I[1778,[],""]
5:I[3236,["901","static/chunks/901-816c7b879cdb1b4a.js","663","static/chunks/app/dashboard/layout-3144cb89c23bba88.js"],"SidebarItem"]
6:I[5250,["901","static/chunks/901-816c7b879cdb1b4a.js","663","static/chunks/app/dashboard/layout-3144cb89c23bba88.js"],""]
0:["7yRsjOB0u9pUrK5w5f2go",[[["",{"children":["dashboard",{"children":["data-fetching",{"children":["server-side",{"children":["__PAGE__",{}]}]}]}]},"$undefined","$undefined",true],["",{"children":["dashboard",{"children":["data-fetching",{"children":["server-side",{"children":["__PAGE__",{},["$L1","$L2",null]]},["$","$L3",null,{"parallelRouterKey":"children","segmentPath":["children","dashboard","children","data-fetching","children","server-side","children"],"loading":"$undefined","loadingStyles":"$undefined","loadingScripts":"$undefined","hasLoading":false,"error":"$undefined","errorStyles":"$undefined","errorScripts":"$undefined","template":["$","$L4",null,{}],"templateStyles":"$undefined","templateScripts":"$undefined","notFound":"$undefined","notFoundStyles":"$undefined","styles":null}]]},["$","$L3",null,{"parallelRouterKey":"children","segmentPath":["children","dashboard","children","data-fetching","children"],"loading":"$undefined","loadingStyles":"$undefined","loadingScripts":"$undefined","hasLoading":false,"error":"$undefined","errorStyles":"$undefined","errorScripts":"$undefined","template":["$","$L4",null,{}],"templateStyles":"$undefined","templateScripts":"$undefined","notFound":"$undefined","notFoundStyles":"$undefined","styles":null}]]},[null,["$","main",null,{"children":["$","div",null,{"className":"antialiased bg-gray-900 w-full min-h-screen text-slate-300 relative py-4 px-4","children":["$","div",null,{"className":"grid grid-cols-12 mx-auto gap-2 sm:gap-4 md:gap-6 lg:gap-10 xl:gap-14 max-w-7xl my-10 px-2","children":[["$","div",null,{"id":"menu","className":"bg-white/10 col-span-3 rounded-lg p-4 ","children":[["$","h1",null,{"className":"font-bold text-lg lg:text-3xl bg-white via-white/50 bg-clip-text text-transparent mb-2","children":["Next.js Bootcamp",["$","span",null,{"className":"text-blue-400","children":"."}]]}],["$","p",null,{"className":"text-slate-400 text-sm mb-4","children":"Engineering Talent Group"}],["$","hr",null,{"className":"my-2 border-slate-700"}],["$","div",null,{"id":"menu","className":"flex flex-col space-y-2 mt-5","children":[[["$","$L5","1",{"route":{"id":1,"title":"Dashboard","subtitle":"Main Page","path":"/dashboard"}}],["$","$L5","2",{"route":{"id":2,"title":"Counter","subtitle":"Next.js","path":"/dashboard/counter"}}],["$","$L5","3",{"route":{"id":3,"title":"Server Side Data Fetching","subtitle":"Server Side","path":"/dashboard/data-fetching/server-side"}}],["$","$L5","4",{"route":{"id":4,"title":"Client Side Data Fetching","subtitle":"Client Side","path":"/dashboard/data-fetching/client-side"}}],["$","$L5","5",{"route":{"id":5,"title":"Authetication","subtitle":"And Interceptors","path":"/dashboard/authentication"}}]],["$","$L6",null,{"href":"/auth/login","className":"bg-blue-700 rounded text-start p-4 font-bold text-xl hover:bg-blue-800 transition-all","children":"Login"}]]}]]}],["$","div",null,{"className":"col-span-9 rounded-lg","children":["$","$L3",null,{"parallelRouterKey":"children","segmentPath":["children","dashboard","children"],"loading":"$undefined","loadingStyles":"$undefined","loadingScripts":"$undefined","hasLoading":false,"error":"$undefined","errorStyles":"$undefined","errorScripts":"$undefined","template":["$","$L4",null,{}],"templateStyles":"$undefined","templateScripts":"$undefined","notFound":"$undefined","notFoundStyles":"$undefined","styles":null}]}]]}]}]}],null]]},[null,["$","html",null,{"lang":"en","children":["$","body",null,{"className":"__className_aaf875","children":["$","$L3",null,{"parallelRouterKey":"children","segmentPath":["children"],"loading":"$undefined","loadingStyles":"$undefined","loadingScripts":"$undefined","hasLoading":false,"error":"$undefined","errorStyles":"$undefined","errorScripts":"$undefined","template":["$","$L4",null,{}],"templateStyles":"$undefined","templateScripts":"$undefined","notFound":[["$","title",null,{"children":"404: This page could not be found."}],["$","div",null,{"style":{"fontFamily":"system-ui,\"Segoe UI\",Roboto,Helvetica,Arial,sans-serif,\"Apple Color Emoji\",\"Segoe UI Emoji\"","height":"100vh","textAlign":"center","display":"flex","flexDirection":"column","alignItems":"center","justifyContent":"center"},"children":["$","div",null,{"children":[["$","style",null,{"dangerouslySetInnerHTML":{"__html":"body{color:#000;background:#fff;margin:0}.next-error-h1{border-right:1px solid rgba(0,0,0,.3)}@media (prefers-color-scheme:dark){body{color:#fff;background:#000}.next-error-h1{border-right:1px solid rgba(255,255,255,.3)}}"}}],["$","h1",null,{"className":"next-error-h1","style":{"display":"inline-block","margin":"0 20px 0 0","padding":"0 23px 0 0","fontSize":24,"fontWeight":500,"verticalAlign":"top","lineHeight":"49px"},"children":"404"}],["$","div",null,{"style":{"display":"inline-block"},"children":["$","h2",null,{"style":{"fontSize":14,"fontWeight":400,"lineHeight":"49px","margin":0},"children":"This page could not be found."}]}]]}]}]],"notFoundStyles":[],"styles":null}]}]}],null]],[[["$","link","0",{"rel":"stylesheet","href":"/_next/static/css/ec8aa73ade0c2f5b.css","precedence":"next","crossOrigin":""}]],"$L7"]]]]
7:[["$","meta","0",{"name":"viewport","content":"width=device-width, initial-scale=1"}],["$","meta","1",{"charSet":"utf-8"}],["$","title","2",{"children":"Create Next App"}],["$","meta","3",{"name":"description","content":"Generated by create next app"}],["$","link","4",{"rel":"icon","href":"/favicon.ico","type":"image/x-icon","sizes":"16x16"}]]
1:null
8:T588,{"count":1302,"next":"https://pokeapi.co/api/v2/pokemon?offset=20&limit=20","previous":null,"results":[{"name":"bulbasaur","url":"https://pokeapi.co/api/v2/pokemon/1/"},{"name":"ivysaur","url":"https://pokeapi.co/api/v2/pokemon/2/"},{"name":"venusaur","url":"https://pokeapi.co/api/v2/pokemon/3/"},{"name":"charmander","url":"https://pokeapi.co/api/v2/pokemon/4/"},{"name":"charmeleon","url":"https://pokeapi.co/api/v2/pokemon/5/"},{"name":"charizard","url":"https://pokeapi.co/api/v2/pokemon/6/"},{"name":"squirtle","url":"https://pokeapi.co/api/v2/pokemon/7/"},{"name":"wartortle","url":"https://pokeapi.co/api/v2/pokemon/8/"},{"name":"blastoise","url":"https://pokeapi.co/api/v2/pokemon/9/"},{"name":"caterpie","url":"https://pokeapi.co/api/v2/pokemon/10/"},{"name":"metapod","url":"https://pokeapi.co/api/v2/pokemon/11/"},{"name":"butterfree","url":"https://pokeapi.co/api/v2/pokemon/12/"},{"name":"weedle","url":"https://pokeapi.co/api/v2/pokemon/13/"},{"name":"kakuna","url":"https://pokeapi.co/api/v2/pokemon/14/"},{"name":"beedrill","url":"https://pokeapi.co/api/v2/pokemon/15/"},{"name":"pidgey","url":"https://pokeapi.co/api/v2/pokemon/16/"},{"name":"pidgeotto","url":"https://pokeapi.co/api/v2/pokemon/17/"},{"name":"pidgeot","url":"https://pokeapi.co/api/v2/pokemon/18/"},{"name":"rattata","url":"https://pokeapi.co/api/v2/pokemon/19/"},{"name":"raticate","url":"https://pokeapi.co/api/v2/pokemon/20/"}]}2:["$","div",null,{"children":[["$","h1",null,{"children":"SS DF"}],"$8"]}]
